/* Copyright (C) 1996-1997  Id Software, Inc.

	This program is free software; you can redistribute it and/or modify
	it under the terms of the GNU General Public License as published by
	the Free Software Foundation; either version 2 of the License, or
	(at your option) any later version.

	This program is distributed in the hope that it will be useful,
	but WITHOUT ANY WARRANTY; without even the implied warranty of
	MERCHANTABILITY or FITNESS FOR A PARTICULAR PURPOSE.  See the
	GNU General Public License for more details.

	You should have received a copy of the GNU General Public License
	along with this program; if not, write to the Free Software
	Foundation, Inc., 59 Temple Place, Suite 330, Boston, MA 02111-1307 USA

	See file, 'COPYING', for details.
*/

// change to alternate textures
void() func_wall_use = {self.frame = 1 - self.frame;};

void() func_wall =
{
	self.movetype = MOVETYPE_PUSH;	// so it doesn't get pushed by anything
	self.solid    = SOLID_BSP;
	self.use      = func_wall_use;  // change to alternate textures when used
	setmodel (self, self.model);

	/*	
	spawnflags 1: invisible but solid wall:
	missiles can't pass through this like they can pass through a clip brush
	Players can climb on it, and they won't auto-jump while walking on it.
	*/

	if (self.spawnflags & 1) self.model="";
};

// appears if the episode has been completed, so players can't reenter it.
void() func_episodegate =
	{ if (serverflags & self.spawnflags) func_wall(); };

// appears unless players have all of the episode sigils.
void() func_bossgate =
	{ if ( (serverflags & 15) != 15) func_wall(); };
