/*  Copyright (C) 2000, 2001 Seth Galbraith

    This program is free software; you can redistribute it and/or modify
    it under the terms of the GNU General Public License as published by
    the Free Software Foundation; either version 2 of the License, or
    (at your option) any later version.

    This program is distributed in the hope that it will be useful,
    but WITHOUT ANY WARRANTY; without even the implied warranty of
    MERCHANTABILITY or FITNESS FOR A PARTICULAR PURPOSE.  See the
    GNU General Public License for more details.

    You should have received a copy of the GNU General Public License
    along with this program; if not, write to the Free Software
    Foundation, Inc., 59 Temple Place, Suite 330, Boston, MA 02111-1307 USA

    See file, 'COPYING', for details.
*/


// Hack and Slash definitions

.float gravity;  // use in worldspawn to set the gravity for this level
.float friction; // use in worldspawn to set the friction for this level

#ifdef QUAKEWORLD
float coop;  // may eventually be added to defs.qc in qc_merge
#endif /* QUAKEWORLD */

// redefine builtin ChangeYaw function
#define ChangeYaw ChangeYaw2
void () ChangeYaw2;

#ifdef QUAKEWORLD
// monster stubs
void() knight_atk1 = {};
void() knight_runatk1 = {};
void() ogre_smash1 = {};
void() ogre_swing1 = {};
void() sham_smash1 = {};
void() sham_swingr1 = {};
void() sham_swingl1 = {};
float()	DemonCheckAttack = {};
void(float side)	Demon_Melee = {};
void() knight_walk1 = {};
void() knight_bow6 = {};
void() knight_bow1 = {};
float()	WizardCheckAttack = {};
float()	DogCheckAttack = {};

#endif /* QUAKEWORLD */
