/* Copyright (C) 1996-1997  Id Software, Inc.

	This program is free software; you can redistribute it and/or modify
	it under the terms of the GNU General Public License as published by
	the Free Software Foundation; either version 2 of the License, or
	(at your option) any later version.

	This program is distributed in the hope that it will be useful,
	but WITHOUT ANY WARRANTY; without even the implied warranty of
	MERCHANTABILITY or FITNESS FOR A PARTICULAR PURPOSE.  See the
	GNU General Public License for more details.

	You should have received a copy of the GNU General Public License
	along with this program; if not, write to the Free Software
	Foundation, Inc., 59 Temple Place, Suite 330, Boston, MA 02111-1307 USA

	See file, 'COPYING', for details.
*/

void() armor_touch =
{
	if (other.health <= 0 || other.classname != "player") return;
	if (other.rps_armorAbsorbLasting >= self.rps_armorAbsorbLasting) return;
	
	other.rps_armorAbsorbLasting = self.rps_armorAbsorbLasting;
	other.rps_armorAbsorbStun    = self.rps_armorAbsorbStun;
	other.rps_armorToughness     = self.rps_armorToughness;
	rps_updateStatusBar (other);

	other.items = other.items - (other.items & (IT_ARMOR1 | IT_ARMOR2 | IT_ARMOR3));
	other.items = other.items + self.items;
		
	sprint (other, PRINT_LOW, "You got ");
	sprint (other, PRINT_LOW, self.netname);
	sprint (other, PRINT_LOW, "\n");
	
	sound (other, CHAN_ITEM, "items/armor1.wav", 1, ATTN_NORM);
	stuffcmd(other, "bf\n");
	
	self.solid = SOLID_NOT;
	self.model = string_null;
	self.think = SUB_regen;
	set_respawn_time();
	
	activator = other;
	SUB_UseTargets();
};

void (float last, float stun, float tuff, float tex, float type, string name) armor_init =
{
	if (!self.rps_armorAbsorbLasting) self.rps_armorAbsorbLasting = last;
	if (!self.rps_armorAbsorbStun)    self.rps_armorAbsorbStun    = stun;
	if (!self.rps_armorToughness)     self.rps_armorToughness     = tuff;
	if (!self.skin)                   self.skin                   = tex;
	if (!self.armortype)              self.armortype              = type;
	if (!self.netname)                self.netname                = name;
	
	if (!self.model) self.model = "progs/armor.mdl";
	precache_model (self.model);
	setmodel (self, self.model);

	setsize (self, '-16 -16 0', '16 16 56');
	self.touch = armor_touch;

	if (self.armortype <= 0) self.items = 0;
	if (self.armortype == 1) self.items = IT_ARMOR1;
	if (self.armortype == 2) self.items = IT_ARMOR2;
	if (self.armortype >= 3) self.items = IT_ARMOR3;

	StartItem ();
};

void() item_armor    = {armor_init (1, 4, 5, 0, 1, "armor");};
void() item_armor1   = {armor_init (1, 4, 5, 0, 1, "green armor");};
void() item_armor2   = {armor_init (2, 5, 5, 1, 2, "yellow armor");};
void() item_armorInv = {armor_init (3, 6, 5, 2, 3, "red armor");};
