/* Copyright (C) 1996-1997  Id Software, Inc.

	This program is free software; you can redistribute it and/or modify
	it under the terms of the GNU General Public License as published by
	the Free Software Foundation; either version 2 of the License, or
	(at your option) any later version.

	This program is distributed in the hope that it will be useful,
	but WITHOUT ANY WARRANTY; without even the implied warranty of
	MERCHANTABILITY or FITNESS FOR A PARTICULAR PURPOSE.  See the
	GNU General Public License for more details.

	You should have received a copy of the GNU General Public License
	along with this program; if not, write to the Free Software
	Foundation, Inc., 59 Temple Place, Suite 330, Boston, MA 02111-1307 USA

	See file, 'COPYING', for details.
*/

// Lava Balls

void() fire_fly;
void() fire_touch;

void() misc_fireball =
{
	if (!self.speed) self.speed = 1000;
	if (!self.model) self.model = "progs/lavaball.mdl";
	
	precache_model (self.model);
	self.classname = "fireball";
	self.nextthink = time + (random() * 5);
	self.think = fire_fly;
};

void() fire_fly =
{
	local entity fireball;
	fireball = spawn();
	fireball.classname = "fireball";

	fireball.solid = SOLID_TRIGGER;
	fireball.movetype = MOVETYPE_TOSS;

	fireball.velocity_x = (random() * 100) - 50;
	fireball.velocity_y = (random() * 100) - 50;
	fireball.velocity_z = self.speed + (random() * 200);

	setmodel  (fireball, self.model);
	setsize   (fireball, '0 0 0', '0 0 0');
	setorigin (fireball, self.origin);

	fireball.nextthink = time + 5;
	fireball.think = SUB_Remove;
	fireball.touch = fire_touch;
	
	self.nextthink = time + (random() * 5) + 3;
	self.think = fire_fly;
};

void() fire_touch =
{
	T_Damage (other, self, self, 20);
	remove (self);
};
