/*
// An entity that can look like any model or sprite
// It is not solid.  It can be animated.
class misc_illusion
{
	void misc_illusion(); // set the model and start animating
	void illusion_animate(); // advance to the next frame

	int cnt;       // number of frames to loop through
	int frame;     // current animation frame
	int nextthink; // time of next frame change
	int wait;      // duration of each animation frame

	void() think;  // always set to misc_illusion_animate()

	string model;  // name of the .mdl, .bsp, .spr, or bmodel to show
	               // path is relative to the game directory
	               // "progs/mymodel.mdl" for example

	vector mangle; // use this to specify pitch, yaw, and roll angles
	vector angles; // determined automatically in the Quake C below
	vector angle;  // a simpler way to set the model's angles
};
*/

// changes the sprite to the next frame of animation
// and schedules the next frame change
void() illusion_animate =
{
	self.frame = self.frame + 1;
	if (self.frame == self.cnt) self.frame = 0; // loop "cnt" frames
	self.nextthink = time + self.wait;          // wait "wait" seconds
};

void() misc_illusion = 
{
	precache_model (self.model); // load the model named "model"
	setmodel (self, self.model); // set the current model

	// two ways to specify angles:
	// use "angle" to set only the yaw angle (turn left/right)
	// use "mangle" to specify pitch, yaw, and roll angles
	if (self.angles == '0 0 0') self.angles = self.mangle;

	if (self.cnt > 1)
	{
		// wait "wait" seconds, then start animating
		self.nextthink = time + self.wait;
		self.think = illusion_animate;
	}
};

// A simple bmodel that looks solid but lets you walk through it.
void() func_illusionary =
{
	self.movetype = MOVETYPE_NONE;
	self.solid = SOLID_NOT;
	setmodel (self, self.model);
	makestatic ();
};

