/* Copyright (C) 1996-1997  Id Software, Inc.

	This program is free software; you can redistribute it and/or modify
	it under the terms of the GNU General Public License as published by
	the Free Software Foundation; either version 2 of the License, or
	(at your option) any later version.

	This program is distributed in the hope that it will be useful,
	but WITHOUT ANY WARRANTY; without even the implied warranty of
	MERCHANTABILITY or FITNESS FOR A PARTICULAR PURPOSE.  See the
	GNU General Public License for more details.

	You should have received a copy of the GNU General Public License
	along with this program; if not, write to the Free Software
	Foundation, Inc., 59 Temple Place, Suite 330, Boston, MA 02111-1307 USA

	See file, 'COPYING', for details.
*/

void() barrel_explode =
{
	self.takedamage = DAMAGE_NO;
	self.classname = "explo_box";
	T_RadiusDamage (self, self, 160, world, ""); // did say self.owner
#ifndef QUAKEWORLD
	sound (self, CHAN_VOICE, "weapons/r_exp3.wav", 1, ATTN_NORM);
	particle (self.origin, '0 0 0', 75, 255);
	self.origin_z = self.origin_z + 32;
	BecomeExplosion ();
#else /* QUAKEWORLD */
	WriteByte (MSG_MULTICAST, SVC_TEMPENTITY);
	WriteByte (MSG_MULTICAST, TE_EXPLOSION);
	WriteCoord (MSG_MULTICAST, self.origin_x);
	WriteCoord (MSG_MULTICAST, self.origin_y);
	WriteCoord (MSG_MULTICAST, self.origin_z+32);
	multicast (self.origin, MULTICAST_PHS);
	remove (self);
#endif /* QUAKEWORLD */
};

void() misc_explobox =
{
	local float	oldz;
	
	self.solid = SOLID_BBOX;
	self.movetype = MOVETYPE_NONE;
	precache_model ("maps/b_explob.bsp");
	setmodel (self, "maps/b_explob.bsp");
	setsize (self, '0 0 0', '32 32 64');
	precache_sound ("weapons/r_exp3.wav");
	self.health = 20;
	self.th_die = barrel_explode;
	self.takedamage = DAMAGE_AIM;

	self.origin_z = self.origin_z + 2;
	oldz = self.origin_z;
	droptofloor();
	if (oldz - self.origin_z > 250)
	{
		dprint ("item fell out of level at ");
		dprint (vtos(self.origin));
		dprint ("\n");
		remove(self);
	}
};

void() misc_explobox2 =
{
	local float	oldz;
	
	self.solid = SOLID_BBOX;
	self.movetype = MOVETYPE_NONE;
	precache_model2 ("maps/b_exbox2.bsp");
	setmodel (self, "maps/b_exbox2.bsp");
	setsize (self, '0 0 0', '32 32 32');
	precache_sound ("weapons/r_exp3.wav");
	self.health = 20;
	self.th_die = barrel_explode;
	self.takedamage = DAMAGE_AIM;

	self.origin_z = self.origin_z + 2;
	oldz = self.origin_z;
	droptofloor();
	if (oldz - self.origin_z > 250)
	{
		dprint ("item fell out of level at ");
		dprint (vtos(self.origin));
		dprint ("\n");
		remove(self);
	}
};
