/* Copyright (C) 1996-1997  Id Software, Inc.

	This program is free software; you can redistribute it and/or modify
	it under the terms of the GNU General Public License as published by
	the Free Software Foundation; either version 2 of the License, or
	(at your option) any later version.

	This program is distributed in the hope that it will be useful,
	but WITHOUT ANY WARRANTY; without even the implied warranty of
	MERCHANTABILITY or FITNESS FOR A PARTICULAR PURPOSE.  See the
	GNU General Public License for more details.

	You should have received a copy of the GNU General Public License
	along with this program; if not, write to the Free Software
	Foundation, Inc., 59 Temple Place, Suite 330, Boston, MA 02111-1307 USA

	See file, 'COPYING', for details.
*/

void() changelevel_use =
{
	landmark = find (world, targetname, self.target);
	if (landmark.classname == "trigger_relay") landmark = world;
	nextstart = self.cnt;
	nextmap = self.map;
	SUB_UseTargets ();
	if ((self.spawnflags & 1) && (deathmatch == 0)) GotoNextMap();
	else
	{
		self.touch = SUB_Null;
		self.think = execute_changelevel;
		self.nextthink = time + 0.1;
	}
};

void() changelevel_touch = {if (other.classname == "player") changelevel_use ();};

/*
When the player touches this, he gets sent to the map listed in the "map" variable.
Unless the NO_INTERMISSION flag is set, the view will go to the info_intermission spot and display stats.
*/
void() trigger_changelevel =
{
	if (!self.map) objerror ("changelevel trigger doesn't have map");
	InitTrigger ();
	self.touch = changelevel_touch;
	self.use   = changelevel_use;
};
