/* Copyright (C) 1996-1997  Id Software, Inc.

	This program is free software; you can redistribute it and/or modify
	it under the terms of the GNU General Public License as published by
	the Free Software Foundation; either version 2 of the License, or
	(at your option) any later version.

	This program is distributed in the hope that it will be useful,
	but WITHOUT ANY WARRANTY; without even the implied warranty of
	MERCHANTABILITY or FITNESS FOR A PARTICULAR PURPOSE.  See the
	GNU General Public License for more details.

	You should have received a copy of the GNU General Public License
	along with this program; if not, write to the Free Software
	Foundation, Inc., 59 Temple Place, Suite 330, Boston, MA 02111-1307 USA

	See file, 'COPYING', for details.
*/

void (float damg) FireAxe =
{
	local vector org, v;
	
	if (self.classname == "player") v = playerangles();
	else v = self.angles;
	makevectors (v);

	// first look for a head-level target
	v = self.origin + '0 0 31';
	traceline (v, v + v_forward * 32, FALSE, self);

	// then look for a chest-level target
	if (trace_fraction == 1.0)
	{
		v = self.origin + '0 0 4';
		traceline (v, v + v_forward * 50, FALSE, self);
	}

	// then look for a foot-level target
	if (trace_fraction == 1.0)
	{
		v = self.origin + '0 0 -23';
		traceline (v, v + v_forward * 32, FALSE, self);
	}

	if (trace_fraction == 1.0) return;

	org = trace_endpos - v_forward*4;
	if (trace_ent.takedamage)
	{
		T_Damage (trace_ent, self, self, damg);
		if (trace_ent.takedamage == DAMAGE_AIM)
		{
/*
			trace_ent.flags    = trace_ent.flags - (trace_ent.flags & FL_ONGROUND);
			trace_ent.velocity = trace_ent.velocity + damg * v_forward * 7;
			trace_ent.velocity = trace_ent.velocity + damg * '0 0 3';
*/
			if (self.rps_actionSuccess == 0) return; // missed!
			trace_ent.axhitme  = 1;
			SpawnBlood (org, '0 0 0', damg);
		}
		else
#ifndef QUAKEWORLD 
			particle (org, '0 0 0', trace_ent.style, damg); // "blood" color for func ents
#else /* if not QUAKEWORLD */
			SpawnBlood (org, '0 0 0', 20);
#endif /* not QUAKEWORLD */
	}
	else
	{
		// hit wall
		sound (self, CHAN_WEAPON, "player/axhit2.wav", 1, ATTN_NORM);

#ifndef QUAKEWORLD
		WriteByte (MSG_BROADCAST, SVC_TEMPENTITY);
		WriteByte (MSG_BROADCAST, TE_GUNSHOT);
		WriteCoord (MSG_BROADCAST, org_x);
		WriteCoord (MSG_BROADCAST, org_y);
		WriteCoord (MSG_BROADCAST, org_z);
#else /* QUAKEWORLD */
		WriteByte (MSG_MULTICAST, SVC_TEMPENTITY);
		WriteByte (MSG_MULTICAST, TE_GUNSHOT);
		WriteByte (MSG_MULTICAST, 3);
		WriteCoord (MSG_MULTICAST, org_x);
		WriteCoord (MSG_MULTICAST, org_y);
		WriteCoord (MSG_MULTICAST, org_z);
		multicast (org, MULTICAST_PVS);
#endif /* QUAKEWORLD */

		self.velocity = self.velocity - damg * v_forward * 7;
		self.velocity = self.velocity + damg * '0 0 3';
	}
};

